; Engine configuration file.
; It's best edited using the editor UI and not directly,
; since the parameters that go here are not all obvious.
;
; Format:
;   [section] ; section goes between []
;   param=value ; assign values to parameters

config_version=3

[application]

config/name="GMTK 2018"
run/main_scene="res://Game.tscn"

[autoload]

ASCII="*res://engine/singletons/ASCII.gd"
Constants="*res://engine/singletons/Constants.gd"
SceneManager="*res://engine/singletons/SceneManager.gd"

[display]

window/size/width=756
window/size/height=432
window/size/test_width=1512
window/size/test_height=864
window/stretch/mode="viewport"
window/stretch/aspect="keep"

[input]

dos_enter=[ Object(InputEventMouseButton,"resource_local_to_scene":false,"resource_name":"","device":0,"alt":false,"shift":false,"control":false,"meta":false,"command":false,"button_mask":0,"position":Vector2( 0, 0 ),"global_position":Vector2( 0, 0 ),"factor":1.0,"button_index":2,"pressed":false,"doubleclick":false,"script":null)
, Object(InputEventKey,"resource_local_to_scene":false,"resource_name":"","device":0,"alt":false,"shift":false,"control":false,"meta":false,"command":false,"pressed":false,"scancode":16777221,"unicode":0,"echo":false,"script":null)
 ]
broken_esc=[ Object(InputEventKey,"resource_local_to_scene":false,"resource_name":"","device":0,"alt":false,"shift":false,"control":false,"meta":false,"command":false,"pressed":false,"scancode":16777217,"unicode":0,"echo":false,"script":null)
 ]

[rendering]

quality/intended_usage/framebuffer_allocation=0
environment/default_clear_color=Color( 0, 0, 0, 1 )
