[gd_scene load_steps=3 format=2]

[ext_resource path="res://engine/Shell.gd" type="Script" id=1]
[ext_resource path="res://engine/TerminalDisplay.tscn" type="PackedScene" id=2]

[node name="Shell" type="Node"]

script = ExtResource( 1 )

[node name="TerminalDisplay" parent="." index="0" instance=ExtResource( 2 )]


