[gd_scene load_steps=3 format=2]

[ext_resource path="res://engine/Level.tscn" type="PackedScene" id=1]
[ext_resource path="res://levels/Level2.gd" type="Script" id=2]

[node name="Level2" instance=ExtResource( 1 )]

script = ExtResource( 2 )


